2:10:5
erbeL:6:5:3:2:3
aguratraT:7:7:1:3:5
Bananas:10:1:S
Cana:3:1:S
Alimento de Dieta:5:2:S
Um Bongo:7:2:S
aegikebgs:5:2:N
Proteina Vegetal:4:3:N
Outro Premio Random:50:3:N
aaaaaaaaaaaa:50:3:N
bbbbbbbbbbb:20:3:N
cccccccccc:1:3:N
3:0
1:3
3:5
4:7
1:8
ATATAAATRRLT